…
```
## # A tibble: 63 x 3
##    title                     word        n
##    <chr>                     <fct>   <int>
##  1 Hamlet, Prince of Denmark ham       358
##  2 Romeo and Juliet          romeo     296
##  3 Macbeth                   macbeth   282
##  4 The Tragedy of King Lear  lear      230
##  5 Hamlet, Prince of Denmark lord      223
##  6 Hamlet, Prince of Denmark king      197
##  7 Romeo and Juliet          juliet    178
##  8 The Tragedy of King Lear  kent      174
##  9 Romeo and Juliet          nurse     149
## 10 Romeo and Juliet          capulet   145
## # … with 53 more rows
```
…
```
## # A tibble: 13,283 x 3
##    gutenberg_id title            bigram             
##           <dbl> <chr>            <chr>              
##  1         1513 Romeo and Juliet william shakespeare
##  2         1513 Romeo and Juliet persons represented
##  3         1513 Romeo and Juliet escalus prince     
##  4         1513 Romeo and Juliet nobleman kinsman   
##  5         1513 Romeo and Juliet montague heads     
##  6         1513 Romeo and Juliet NA NA              
##  7         1513 Romeo and Juliet romeo son          
##  8         1513 Romeo and Juliet mercutio kinsman   
##  9         1513 Romeo and Juliet benvolio nephew    
## 10         1513 Romeo and Juliet tybalt nephew      
## # … with 13,273 more rows
```
…
